// Jest Snapshot v1, https://goo.gl/fbAQLP

exports[`should process correctly with script 1`] = `
"<script context=\\"module\\">
  export const hello = \\"world\\";
</script>

<script>
  import LocalizationContext from \\"fluent-svelte/Context.svelte\\";
  import AmountOwed$en from \\"/home/rmc/Workspace/fluent-svelte/src/locales/en/amount-owed.svelte\\";
  import AmountOwed$ptPT from \\"/home/rmc/Workspace/fluent-svelte/src/locales/pt-PT/amount-owed.svelte\\";
  import { FluentNumber } from \\"fluent-svelte/runtime\\";
</script>

<style>
  button {
    color: red;
  }
</style>


<LocalizationContext let:context={localizationContext$}>
  <svelte:component
    this={{ en: AmountOwed$en, 'pt-PT': AmountOwed$ptPT }[localizationContext$.locales['0']]}
    amount={new FluentNumber(24.99, { currency: 'EUR' })}
    context={localizationContext$} />
</LocalizationContext>
"
`;

exports[`should process correctly without script 1`] = `
"<script context=\\"module\\">
  export const hello = \\"world\\";
</script>

<script>
  import LocalizationContext from \\"fluent-svelte/Context.svelte\\";
  import Hello$en from \\"/home/rmc/Workspace/fluent-svelte/src/locales/en/hello.svelte\\";
  import Hello$ptPT from \\"/home/rmc/Workspace/fluent-svelte/src/locales/pt-PT/hello.svelte\\";
</script>

<style>
  button {
    color: red;
  }
</style>


<LocalizationContext let:context={localizationContext$}>
  <svelte:component
    this={{ en: Hello$en, 'pt-PT': Hello$ptPT }[localizationContext$.locales['0']]}
    name=\\"world\\"
    context={localizationContext$} />
</LocalizationContext>
"
`;

exports[`should throw when id is computed 1`] = `"fluent-svelte preprocess: Found malformed id attribute on <Localized> in test"`;

exports[`should throw when id is empty 1`] = `"fluent-svelte preprocess: Found malformed id attribute on <Localized> in test"`;

exports[`should throw when id is missing 1`] = `"fluent-svelte preprocess: Found <Localized/> but \`id\` attribute is missing in test"`;

exports[`should wrap <Localized> inside IfBlocks with single <LocalizationContext> 1`] = `
"<script>
  import LocalizationContext from \\"fluent-svelte/Context.svelte\\";
  import ItemsSelect$en from \\"/home/rmc/Workspace/fluent-svelte/src/locales/en/items-select.svelte\\";
  import ItemsSelect$ptPT from \\"/home/rmc/Workspace/fluent-svelte/src/locales/pt-PT/items-select.svelte\\";
  import ItemsSelected$en from \\"/home/rmc/Workspace/fluent-svelte/src/locales/en/items-selected.svelte\\";
  import ItemsSelected$ptPT from \\"/home/rmc/Workspace/fluent-svelte/src/locales/pt-PT/items-selected.svelte\\";
</script>

<LocalizationContext let:context={localizationContext$}>
  {#if num === 0}
    <svelte:component
      this={{ en: ItemsSelect$en, 'pt-PT': ItemsSelect$ptPT }[localizationContext$.locales['0']]}
      context={localizationContext$} />
  {:else}
    <svelte:component
      this={{ en: ItemsSelected$en, 'pt-PT': ItemsSelected$ptPT }[localizationContext$.locales['0']]}
      {num}
      context={localizationContext$} />
  {/if}
</LocalizationContext>
"
`;

exports[`should wrap multiple <Localized> with single <LocalizationContext> 1`] = `
"<script>
  import LocalizationContext from \\"fluent-svelte/Context.svelte\\";
  import Hello$en from \\"/home/rmc/Workspace/fluent-svelte/src/locales/en/hello.svelte\\";
  import Hello$ptPT from \\"/home/rmc/Workspace/fluent-svelte/src/locales/pt-PT/hello.svelte\\";
  import AmountOwed$en from \\"/home/rmc/Workspace/fluent-svelte/src/locales/en/amount-owed.svelte\\";
  import AmountOwed$ptPT from \\"/home/rmc/Workspace/fluent-svelte/src/locales/pt-PT/amount-owed.svelte\\";
</script>

<Span>sda</Span>

<LocalizationContext let:context={localizationContext$}>
  <svelte:component
    this={{ en: Hello$en, 'pt-PT': Hello$ptPT }[localizationContext$.locales['0']]}
    name=\\"world\\"
    context={localizationContext$} />

  <div>
    <svelte:component
      this={{ en: AmountOwed$en, 'pt-PT': AmountOwed$ptPT }[localizationContext$.locales['0']]}
      amount={new FluentNumber(24.99, { currency: 'EUR' })}
      context={localizationContext$} />
  </div>

  <InBetween>
    asda
    <svelte:component
      this={{ en: Hello$en, 'pt-PT': Hello$ptPT }[localizationContext$.locales['0']]}
      name=\\"world\\"
      context={localizationContext$} />
  </InBetween>

  <svelte:component
    this={{ en: Hello$en, 'pt-PT': Hello$ptPT }[localizationContext$.locales['0']]}
    name=\\"world\\"
    context={localizationContext$} />
</LocalizationContext>

<Foo>asda</Foo>
"
`;
